<?xml version="1.0" encoding="utf-8"?>
<!-- Generator: Adobe Illustrator 19.2.1, SVG Export Plug-In . SVG Version: 6.00 Build 0)  -->
<svg version="1.1" id="Layer_1" xmlns="http://www.w3.org/2000/svg" xmlns:xlink="http://www.w3.org/1999/xlink" x="0px" y="0px"
  viewBox="0 0 38.5 38.5" style="enable-background:new 0 0 38.5 38.5;" xml:space="preserve">
<style type="text/css">
  .st0{fill:#006b3f;}
</style>
<title>Asset 1</title>
<g id="Layer_2">
  <g id="Guides">
    <rect x="23.2" y="15.3" class="st0" width="15.3" height="7.9"/>
    <rect y="15.3" class="st0" width="15.3" height="7.9"/>
    <rect x="15.3" y="23.2" class="st0" width="7.9" height="15.3"/>
    <rect x="15.3" class="st0" width="7.9" height="15.3"/>
    <rect x="15.3" y="15.3" class="st0" width="7.9" height="7.9"/>
    <rect x="15.3" y="15.3" class="st0" width="7.9" height="7.9"/>
  </g>
</g>
</svg>
